Paper Replication - Simulation
…
exogenous

$X
# A tibble: 5 × 4
      j   x_1   x_2    x_3
  <dbl> <dbl> <dbl>  <dbl>
1     0     0  0     0    
2     1     1 -1.92 -0.120
3     2     1 -3.21  1.54 
4     3     1 -3.69 -0.282
5     4     1  1.11  0.786

$M
# A tibble: 1,000 × 11
       j     r     t   w_1      w_2 sigma_s   mu_s tau_s sigma_d   tau_d     p
   <dbl> <int> <int> <dbl>    <dbl>   <dbl>  <dbl> <dbl>   <dbl>   <dbl> <dbl>
 1     0     1     1     0 0         0      0      0      0      0           0
 2     1     1     1     0 0.00224   0.196  0.0749 0.118 -0.0112 0.00181     0
 3     2     1     1     0 0.0209    0.0143 0.0749 0.118 -0.0965 0.00181     0
 4     3     1     1     0 0.000822  0.0664 0.0749 0.118 -0.0163 0.00181     0
 5     4     1     1     0 0.00959   0.0479 0.0749 0.118  0.0860 0.00181     0
 6     0     2     1     0 0         0      0      0      0      0           0
 7     1     2     1     0 0.00248   0.196  0.142  0.118 -0.0112 0.00181     0
 8     2     2     1     0 0.0121    0.0143 0.142  0.118 -0.0965 0.00181     0
 9     3     2     1     0 0.00941   0.0664 0.142  0.118 -0.0163 0.00181     0
10     4     2     1     0 0.0219    0.0479 0.142  0.118  0.0860 0.00181     0
# ℹ 990 more rows

$D
# A tibble: 100,000 × 4
       i     r     t     D
   <int> <int> <int> <dbl>
 1     1     1     1 0.353
 2     2     1     1 0.353
 3     3     1     1 0.353
 4     4     1     1 0.353
 5     5     1     1 0.353
 6     6     1     1 0.353
 7     7     1     1 0.353
 8     8     1     1 0.353
 9     9     1     1 0.353
10    10     1     1 0.353
# ℹ 99,990 more rows

Shock

We proceed to draw shocks. They are \(\xi\) in the demand side and \(\eta\) in the cost side.

shock <- 
  set_shock(constant)

shock

# A tibble: 1,000 × 5
       j     r     t      xi    eta
   <dbl> <int> <int>   <dbl>  <dbl>
 1     0     1     1  0      0     
 2     1     1     1 -0.371  0.0626
 3     2     1     1  0.537  0.338 
 4     3     1     1  0.0556 0.114 
 5     4     1     1  0.125  0.210 
 6     0     2     1  0      0     
 7     1     2     1 -0.230  0.0363
 8     2     2     1  0.259  0.0971
 9     3     2     1  0.104  0.287 
10     4     2     1 -0.188  0.212 
# ℹ 990 more rows
…
\[
\delta_{jrt} = x_j \beta + \alpha p_{jrt} + \sigma_j^D + \tau_j^D + \xi_{jrt}.
\]

delta <- 
  compute_delta(
    M = exogenous$M,
    X = exogenous$X,
    shock = shock,
    parameter = parameter
  )
delta

# A tibble: 1,000 × 4
       j     r     t  delta
   <dbl> <int> <int>  <dbl>
 1     0     1     1  0    
 2     1     1     1  0.368
 3     2     1     1 -0.438
 4     3     1     1  0.599
 5     4     1     1  0.760
 6     0     2     1  0    
 7     1     2     1  0.509
 8     2     2     1 -0.715
 9     3     2     1  0.647
10     4     2     1  0.447
# ℹ 990 more rows

We also compute the individual level deviation from the market-level mean indirect utility, \[
\mu_{ijrt} = [p_{jrt}, x_j]' * \Pi D_i
\]

mu <- 
  compute_mu(
    M = exogenous$M,
    X = exogenous$X,
    D = exogenous$D,
    parameter = parameter
  )
mu

# A tibble: 500,000 × 5
       i     j     r     t         mu
   <int> <dbl> <int> <int>      <dbl>
 1     1     0     1     1  0        
 2     1     1     1     1  0.000651 
 3     1     2     1     1  0.00131  
 4     1     3     1     1  0.00114  
 5     1     4     1     1 -0.0000703
 6     2     0     1     1  0        
 7     2     1     1     1  0.000651 
 8     2     2     1     1  0.00131  
 9     2     3     1     1  0.00114  
10     2     4     1     1 -0.0000703
# ℹ 499,990 more rows

Since the heterogeneity is at market level, we expect to see identical deviation for distinct individuals in the same market.

We can then compute the mean indirect utility for each consumer \(i\) in each market \((r, t)\) for each product \(j\)

u_df <- 
  compute_indirect_utility(
    delta = delta,
    mu = mu
  )
u_df

# A tibble: 500,000 × 5
       i     j     r     t      u
   <int> <dbl> <int> <int>  <dbl>
 1     1     0     1     1  0    
 2     1     1     1     1  0.368
 3     1     2     1     1 -0.436
 4     1     3     1     1  0.600
 5     1     4     1     1  0.760
 6     2     0     1     1  0    
 7     2     1     1     1  0.368
 8     2     2     1     1 -0.436
 9     2     3     1     1  0.600
10     2     4     1     1  0.760
# ℹ 499,990 more rows
…
u_df <-
  compute_market_inclusive_value(
    u_df = u_df
    )

u_df <- 
  compute_share_df(
    u_df = u_df,
    rho = parameter$rho
  )

u_df

# A tibble: 500,000 × 10
       i     j     r     t     g     u u_adj   I_g     I   s_i
   <int> <dbl> <int> <int> <dbl> <dbl> <dbl> <dbl> <dbl> <dbl>
 1     1     0     1     1     0     0     0     0  1.35 0.258
 2     1     0     1     2     0     0     0     0  1.45 0.235
 3     1     0     1     3     0     0     0     0  1.56 0.210
 4     1     0     1     4     0     0     0     0  1.35 0.259
 5     1     0     1     5     0     0     0     0  1.41 0.245
 6     1     0     1     6     0     0     0     0  1.27 0.281
 7     1     0     1     7     0     0     0     0  1.29 0.274
 8     1     0     1     8     0     0     0     0  1.38 0.251
 9     1     0     1     9     0     0     0     0  1.38 0.251
10     1     0     1    10     0     0     0     0  1.44 0.236
# ℹ 499,990 more rows

The market share of product \(j\) in market \((r, t)\) is the mean of the individual optimal choice probability, \[
s_{jrt} = \frac{1}{N_{rt}} \sum_{i = 1}^{N_{rt}} s_{ijrt}.
\]

share_df <-
  compute_share_df(
    u_df = u_df
  )
share_df

# A tibble: 1,000 × 4
       j     r     t       s
   <dbl> <int> <int>   <dbl>
 1     0     1     1 0.258  
 2     1     1     1 0.133  
 3     2     1     1 0.0178 
 4     3     1     1 0.237  
 5     4     1     1 0.354  
 6     0     1     2 0.235  
 7     1     1     2 0.407  
 8     2     1     2 0.00211
 9     3     1     2 0.108  
10     4     1     2 0.247  
# ℹ 990 more rows
…
